[gd_resource type="Theme" load_steps=2 format=3 uid="uid://dv1hiv7n7ujvv"]

[sub_resource type="StyleBoxFlat" id="StyleBoxFlat_8xjtl"]
content_margin_left = 0.0
content_margin_top = 0.0
content_margin_right = 0.0
content_margin_bottom = 0.0
bg_color = Color(1, 1, 0.572549, 0.87451)
border_width_left = 1
border_width_top = 1
border_width_right = 1
border_width_bottom = 1
corner_radius_top_left = 8
corner_radius_top_right = 8
corner_radius_bottom_right = 8
corner_radius_bottom_left = 8

[resource]
Panel/styles/panel = SubResource("StyleBoxFlat_8xjtl")
