[gd_scene load_steps=7 format=3 uid="uid://bn020ita6xxx0"]

[ext_resource type="AudioStream" uid="uid://bxy0st3mjrvs4" path="res://assets/soundEffects/GGJ.marimbasaute.1.wav" id="1_3urkf"]
[ext_resource type="AudioStream" uid="uid://btwvjskdoprwt" path="res://assets/soundEffects/GGJ.marimbasaute.2.wav" id="2_7gc00"]
[ext_resource type="AudioStream" uid="uid://dtshmcj7yrk0o" path="res://assets/soundEffects/GGJ.marimbasaute.3.wav" id="3_xa7q7"]
[ext_resource type="AudioStream" uid="uid://b60ppgrpl7lmu" path="res://assets/soundEffects/GGJ.marimbasaute.4.wav" id="4_jooxh"]
[ext_resource type="AudioStream" uid="uid://bcihtvy5xwrrb" path="res://assets/soundEffects/GGJ.marimbasaute.5.wav" id="5_scnr3"]

[sub_resource type="AudioStreamRandomizer" id="AudioStreamRandomizer_qalfq"]
streams_count = 5
stream_0/stream = ExtResource("1_3urkf")
stream_0/weight = 1.0
stream_1/stream = ExtResource("2_7gc00")
stream_1/weight = 1.0
stream_2/stream = ExtResource("3_xa7q7")
stream_2/weight = 1.0
stream_3/stream = ExtResource("4_jooxh")
stream_3/weight = 1.0
stream_4/stream = ExtResource("5_scnr3")
stream_4/weight = 1.0

[node name="SoundEffects" type="AudioStreamPlayer"]
stream = SubResource("AudioStreamRandomizer_qalfq")
