[gd_scene load_steps=4 format=3 uid="uid://cgowc8ydp2kn4"]

[ext_resource type="PackedScene" uid="uid://65k4wg1e5wb7" path="res://scenes/items/trap/trap.tscn" id="1_mfr72"]
[ext_resource type="Texture2D" uid="uid://uby4u27k72ko" path="res://assets/sprites/muffin/muffin.png" id="2_mstf2"]

[sub_resource type="CylinderShape3D" id="CylinderShape3D_6irdp"]
radius = 0.860674

[node name="Muffin" instance=ExtResource("1_mfr72")]
target_influence = 0.5
neighbors_influence = -0.1

[node name="CollisionShape3D" parent="TriggerZone" index="0"]
shape = SubResource("CylinderShape3D_6irdp")

[node name="Sprite3D" type="Sprite3D" parent="." index="2"]
transform = Transform3D(1, 0, 0, 0, 1, 0, 0, 0, 1, 0, 0.516944, 0)
pixel_size = 0.02
billboard = 2
shaded = true
texture_filter = 0
texture = ExtResource("2_mstf2")
