[gd_scene load_steps=4 format=3 uid="uid://65k4wg1e5wb7"]

[ext_resource type="Script" path="res://scenes/items/trap/trap.gd" id="1_1pyte"]

[sub_resource type="CapsuleShape3D" id="CapsuleShape3D_ody1p"]
height = 3.11173

[sub_resource type="SphereShape3D" id="SphereShape3D_1cuas"]
radius = 6.79553

[node name="Trap" type="Node3D"]
script = ExtResource("1_1pyte")

[node name="TriggerZone" type="Area3D" parent="."]

[node name="CollisionShape3D" type="CollisionShape3D" parent="TriggerZone"]
transform = Transform3D(1, 0, 0, 0, 1, 0, 0, 0, 1, 0, 0.470012, 0)
shape = SubResource("CapsuleShape3D_ody1p")

[node name="EffectZone" type="Area3D" parent="."]

[node name="CollisionShape3D" type="CollisionShape3D" parent="EffectZone"]
shape = SubResource("SphereShape3D_1cuas")

[connection signal="body_entered" from="TriggerZone" to="." method="_on_trigger_zone_body_entered"]
