; Engine configuration file.
; It's best edited using the editor UI and not directly,
; since the parameters that go here are not all obvious.
;
; Format:
;   [section] ; section goes between []
;   param=value ; assign values to parameters

config_version=5

[application]

config/name="The Funny Place"
run/main_scene="res://scenes/ui/loading_screen/loading_screen.tscn"
config/features=PackedStringArray("4.2", "Forward Plus")
config/icon="res://assets/icon.png"

[autoload]

UIStatusSingleton="*res://scenes/ui/ui_status/ui_status.tscn"
GlobalHappinessObserver="*res://scenes/world/global_happiness_observer.tscn"
SoundEffects="*res://scenes/soundSystem/sound_effects/SoundEffects.tscn"

[display]

mouse_cursor/custom_image="res://assets/sprites/cursor/god-hand1.png"

[dotnet]

project/assembly_name="GGJ-2024"

[input]

rotate_camera={
"deadzone": 0.5,
"events": [Object(InputEventMouseButton,"resource_local_to_scene":false,"resource_name":"","device":-1,"window_id":0,"alt_pressed":false,"shift_pressed":false,"ctrl_pressed":false,"meta_pressed":false,"button_mask":0,"position":Vector2(0, 0),"global_position":Vector2(0, 0),"factor":1.0,"button_index":2,"canceled":false,"pressed":false,"double_click":false,"script":null)
]
}
zoom={
"deadzone": 0.5,
"events": [Object(InputEventMouseButton,"resource_local_to_scene":false,"resource_name":"","device":-1,"window_id":0,"alt_pressed":false,"shift_pressed":false,"ctrl_pressed":false,"meta_pressed":false,"button_mask":0,"position":Vector2(0, 0),"global_position":Vector2(0, 0),"factor":1.0,"button_index":4,"canceled":false,"pressed":false,"double_click":false,"script":null)
]
}
unzoom={
"deadzone": 0.5,
"events": [Object(InputEventMouseButton,"resource_local_to_scene":false,"resource_name":"","device":-1,"window_id":0,"alt_pressed":false,"shift_pressed":false,"ctrl_pressed":false,"meta_pressed":false,"button_mask":0,"position":Vector2(0, 0),"global_position":Vector2(0, 0),"factor":1.0,"button_index":5,"canceled":false,"pressed":false,"double_click":false,"script":null)
]
}

[layer_names]

3d_physics/layer_2="Interactions"
3d_physics/layer_3="Ground"
