[gd_resource type="Sky" load_steps=3 format=3 uid="uid://d4es6v4e8wkij"]

[ext_resource type="Texture2D" uid="uid://douxdjn5qlsty" path="res://assets/textures/darkness.JPG" id="1_hllkj"]

[sub_resource type="PanoramaSkyMaterial" id="PanoramaSkyMaterial_k1k2f"]
panorama = ExtResource("1_hllkj")

[resource]
sky_material = SubResource("PanoramaSkyMaterial_k1k2f")
