[gd_scene load_steps=3 format=3 uid="uid://dwt1fxp0fw6rh"]

[ext_resource type="PackedScene" uid="uid://biwbpeq0w7c4g" path="res://scenes/world/happiness_observer.tscn" id="1_r0vrb"]

[sub_resource type="BoxShape3D" id="BoxShape3D_cd2ih"]
size = Vector3(263.417, 172.344, 256.744)

[node name="GlobalHappinessObserver" instance=ExtResource("1_r0vrb")]
check_happiness_each_frame = true

[node name="CollisionShape3D" type="CollisionShape3D" parent="." index="0"]
transform = Transform3D(1, 0, 0, 0, 1, 0, 0, 0, 1, -1.49615, -12.0702, -2.68414)
shape = SubResource("BoxShape3D_cd2ih")
