[gd_resource type="ParticleProcessMaterial" load_steps=3 format=3 uid="uid://c83eb5y00mtso"]

[sub_resource type="Curve" id="Curve_lxptj"]
_data = [Vector2(0, 1), 0.0, 0.0, 0, 0, Vector2(1, 0.373626), 0.0, 0.0, 0, 0]
point_count = 2

[sub_resource type="CurveTexture" id="CurveTexture_pdilv"]
curve = SubResource("Curve_lxptj")

[resource]
emission_shape = 1
emission_sphere_radius = 2.0
direction = Vector3(0, 1, 0)
initial_velocity_min = 1.0
initial_velocity_max = 1.0
gravity = Vector3(0, 0, 0)
scale_min = 0.2
scale_max = 0.5
scale_curve = SubResource("CurveTexture_pdilv")
